{
    "Plugins": [
        {
            "Info": {
                "Types": {
                    "HdMirageRendererPlugin": {
                        "bases": [
                            "HdRendererPlugin"
                        ],
                        "displayName": "Mirage",
                        "priority": 99
                    }
                }
            },
            "LibraryPath": "@PLUG_INFO_LIBRARY_PATH@", 
            "Name": "hdMirage",
            "ResourcePath": "@PLUG_INFO_RESOURCE_PATH@", 
            "Root": "@PLUG_INFO_ROOT@", 
            "Type": "library"
        }
    ]
}